{
  "type": "service_account",
  "project_id": "hciproject-10f0d",
  "private_key_id": "a75934fea4a13339da8adee33b79a84070110e35",
  "private_key": "-----BEGIN PRIVATE KEY-----\nMIIEvAIBADANBgkqhkiG9w0BAQEFAASCBKYwggSiAgEAAoIBAQDRFx/LHlR2yi0h\n/6IfXypP/7+MIUIG2lkgGekAM2DS4xeEb/Gfi1m4PTKFiS6i8XV4n2ISqu6YpxWa\nyI30iGVajOXbLe4Pq2P3l+oJT6TlfbxsDLopXHe//ubYhhYJIl5wG8JYbvRpeLxn\nigFG/fIQrooQPYV033O9dNTdMMw7jYZ5FE9eE3SbiTx2+2fkDe3chiSSmvtVDlRU\nkoJignJchmI1f4dhlohp8ays70TfLNhbEAQLazq66BpERuKwGE1A9b2OQqN9wJYh\n9hhQDo1F77bI7zc1tbJ1nl3y4/MaZpn2Iag3pBtb7GD3LrVts4HyZtC8SFIMSmdS\nRdip4wnJAgMBAAECggEABBgXEgfZwQqz6AjEoKchIbhhBIopLA+t85Q2TP/0iySR\nsxDrEwPsQZCHMvis7llagr5iMfnhWqFY6bM4HlvmWifMn2ZOlUV2m2RA26ZQ1QKJ\nhDcalRE/sgV4eTBk8ZBX94t/mnIvvHn1/HQGEuEJkpyMTQWbXZ67ei/1tBAOy7Kw\nY/DZyCLuF6DkZWpPTRyhnEGuvw52koYyt9sOOmFJy/x1q4bGCaH+6abm9MaPU9q0\nH4IV5vO4Ma1tOfRppB1qFn0BP/Rjy+e/Yo34l8vefE+m7Yvcg+gKkNIq8PN2MhR1\n1C/KM4QrRyt2+hx6nieReXG1J1gndzrJPzx3jYU5wQKBgQD48RANAa+QlOwzwvjL\nnOxaJoZuI9Q97pJkSGCAJqyBAcIKDAVRx7gb/T88tjJL6EP2Ye+ZcEnzo2ilmj/a\nC6fD/6vfc2MtL59+mzyC9WK4G8mCgHnFoUK4BMZfwAKSlrr7CYdKAC09cskLUXOJ\nl8M0ipcrNhMAD50Pkn+sBRmy6QKBgQDXBM00WVsEe1H4O8Y4cm9JBeMvOmrY7tV2\nPwL2IJoCdMyxI42/OGjc6NGi8uUM1MpD1RORJo05cnFcWYEOBe5Tgs28MvvXACsb\nwU4TrhErQo9KI0uWbsiRCTXNZh6kYjlhDUvW/66RCcGz/h2TWJ6iSZn2m6RtF2ir\n+xSq02mT4QKBgCBYGdDGzkvHvaTACVlTKzZPWRoIV7QwQh77dGZSIAmm89IgW7ST\ncW1ZixTVS1WneOUTNnFGMKWSLq+NigxHhWWm22rt8A3X6S4m90bAoTHwkk79aFTw\nLd4A6NFZ/juTj/m79DL+MOKR/mMVEyDmcftqold/8BoK7Uovq5zrELq5AoGAPaut\n457hYSaxuv4B+3yu+IXMxGX/8VqHNRQbmFZ/dcbkUsY8yKS4Ruwr/I2oLob1wIDj\nzNT+2oQ9iVxOjKQc2C0DL0B8RQ1ST/KgnzpkyECd8oivDGWX9ylqGhB5J3LYvEJh\nBzhsbEMdIK/48aMQVMHBfB7mCTgWmIU6R0i91mECgYBahfOgXW1aL9dUg4NVBlk5\nF/t6M0Fl6ASSA9tw5bFzn22j97hGOwnlkiTtec9cDfej5DxEez0G6Er7VWIxQ/Pz\nulcCtsFCJRSpleCCDCkcy1vtyQp+S6tlQE4hcl/qK0EqVawke1qmRYqRL+UHXSkl\nxTAYoFU1EOVXMnR6a3HLKw==\n-----END PRIVATE KEY-----\n",
  "client_email": "firebase-adminsdk-vqfbs@hciproject-10f0d.iam.gserviceaccount.com",
  "client_id": "114509283560901074605",
  "auth_uri": "https://accounts.google.com/o/oauth2/auth",
  "token_uri": "https://oauth2.googleapis.com/token",
  "auth_provider_x509_cert_url": "https://www.googleapis.com/oauth2/v1/certs",
  "client_x509_cert_url": "https://www.googleapis.com/robot/v1/metadata/x509/firebase-adminsdk-vqfbs%40hciproject-10f0d.iam.gserviceaccount.com"
}
